<?xml version="1.0" encoding="UTF-8"?>
<svg width="33px" height="26px" viewBox="0 0 33 26" version="1.1" xmlns="http://www.w3.org/2000/svg" xmlns:xlink="http://www.w3.org/1999/xlink">
    <!-- Generator: sketchtool 46.2 (44496) - http://www.bohemiancoding.com/sketch -->
    <title>1586EDAC-615C-4DFB-AFF8-D87E5ABB56EE</title>
    <desc>Created with sketchtool.</desc>
    <defs>
        <polygon id="path-1" points="0.0596577713 3.90432852 30.2706255 3.90432852 30.2706255 0.0314631743 0.0596577713 0.0314631743"></polygon>
        <polygon id="path-3" points="0 25.2245334 32.2051716 25.2245334 32.2051716 0 0 0"></polygon>
    </defs>
    <g id="Symbols" stroke="none" stroke-width="1" fill="none" fill-rule="evenodd">
        <g id="Icons/mastercard">
            <g id="ic-mastercard">
                <g id="Group-3" transform="translate(1.607771, 21.320205)">
                    <mask id="mask-2" fill="white">
                        <use xlink:href="#path-1"></use>
                    </mask>
                    <g id="Clip-2"></g>
                    <path d="M29.9586233,3.56230935 L29.9586233,3.6323564 L30.0183946,3.6323564 C30.0319188,3.6323564 30.0428894,3.62960346 30.051212,3.62409758 C30.0596292,3.61777601 30.0634122,3.60880346 30.0634122,3.59697601 C30.0634122,3.58525052 30.0596292,3.57688974 30.051212,3.57067013 C30.0428894,3.56506229 30.0319188,3.56230935 30.0183946,3.56230935 L29.9586233,3.56230935 Z M30.0190566,3.51631445 C30.05055,3.51631445 30.0743828,3.52345651 30.0917846,3.53707405 C30.1085243,3.55126295 30.1168469,3.57068937 30.1168469,3.5946867 C30.1168469,3.61477971 30.1104158,3.63163498 30.0968916,3.64525252 C30.0833674,3.65820346 30.0640742,3.66591689 30.0390119,3.66915463 L30.1187384,3.76181101 L30.0564136,3.76181101 L29.9824562,3.66982122 L29.9586233,3.66982122 L29.9586233,3.76181101 L29.9065126,3.76181101 L29.9065126,3.51631445 L30.0190566,3.51631445 Z M30.0036409,3.84599214 C30.0319188,3.84599214 30.0583051,3.84084986 30.0828,3.82980346 C30.1072003,3.81942366 30.1284796,3.80456817 30.1471109,3.78580835 C30.1657421,3.76704852 30.1799283,3.74562233 30.1908044,3.72038704 C30.201113,3.69515174 30.2062201,3.66858326 30.2062201,3.64001501 C30.2062201,3.61154198 30.201113,3.5849735 30.1908044,3.5597382 C30.1799283,3.53450291 30.1657421,3.51307671 30.1471109,3.49431689 C30.1284796,3.47555707 30.1072003,3.46127294 30.0828,3.45022655 C30.0583051,3.43984675 30.0319188,3.43470446 30.0036409,3.43470446 C29.974701,3.43470446 29.9476526,3.43984675 29.9225903,3.45022655 C29.897528,3.46127294 29.8762487,3.47555707 29.8576174,3.49431689 C29.8389862,3.51307671 29.8248,3.53450291 29.8138293,3.5597382 C29.8036152,3.5849735 29.7984136,3.61154198 29.7984136,3.64001501 C29.7984136,3.66858326 29.8036152,3.69515174 29.8138293,3.72038704 C29.8248,3.74562233 29.8389862,3.76704852 29.8576174,3.78580835 C29.8762487,3.80456817 29.897528,3.81942366 29.9225903,3.82980346 C29.9476526,3.84084986 29.974701,3.84599214 30.0036409,3.84599214 L30.0036409,3.84599214 Z M30.0036409,3.37575862 C30.0403359,3.37575862 30.0750449,3.3822341 30.1078623,3.39651822 C30.1400177,3.41013576 30.1682956,3.42889558 30.1927905,3.45289292 C30.2165287,3.47679503 30.235822,3.50536329 30.2500082,3.53707405 C30.2635324,3.56945141 30.2706255,3.60382855 30.2706255,3.64001501 C30.2706255,3.67629669 30.2635324,3.71067383 30.2500082,3.74238459 C30.235822,3.77476195 30.2165287,3.80266362 30.1927905,3.82656573 C30.1682956,3.85056306 30.1400177,3.86932289 30.1078623,3.88360701 C30.0750449,3.89789114 30.0403359,3.90436661 30.0036409,3.90436661 C29.9657164,3.90436661 29.9303455,3.89789114 29.897528,3.88360701 C29.8647106,3.86932289 29.8364327,3.85056306 29.8125999,3.82656573 C29.788105,3.80266362 29.7694738,3.77476195 29.7552875,3.74238459 C29.7417633,3.71067383 29.7347648,3.67629669 29.7347648,3.64001501 C29.7347648,3.60382855 29.7417633,3.56945141 29.7552875,3.53707405 C29.7694738,3.50536329 29.788105,3.47679503 29.8125999,3.45289292 C29.8364327,3.42889558 29.8647106,3.41013576 29.897528,3.39651822 C29.9303455,3.3822341 29.9657164,3.37575862 30.0036409,3.37575862 L30.0036409,3.37575862 Z M5.35083299,2.43072067 C5.35083299,1.96305829 5.65451261,1.57891046 6.15244883,1.57891046 C6.62787625,1.57891046 6.94820103,1.94620302 6.94820103,2.43072067 C6.94820103,2.91523831 6.62787625,3.28253088 6.15244883,3.28253088 C5.65451261,3.28253088 5.35083299,2.89838304 5.35083299,2.43072067 L5.35083299,2.43072067 Z M7.48983079,2.43072067 L7.48983079,1.10020169 L6.91538358,1.10020169 L6.91538358,1.42349913 C6.7326651,1.18381145 6.45603387,1.03354242 6.08038284,1.03354242 C5.33929487,1.03354242 4.75898402,1.61842988 4.75898402,2.43072067 C4.75898402,3.24367805 5.33929487,3.82789891 6.08038284,3.82789891 C6.45603387,3.82789891 6.7326651,3.67762988 6.91538358,3.43860879 L6.91538358,3.76114442 L7.48983079,3.76114442 L7.48983079,2.43072067 Z M26.9054657,2.43072067 C26.9054657,1.96305829 27.2098073,1.57891046 27.7070815,1.57891046 C28.1824144,1.57891046 28.5034012,1.94620302 28.5034012,2.43072067 C28.5034012,2.91523831 28.1824144,3.28253088 27.7070815,3.28253088 C27.2098073,3.28253088 26.9054657,2.89838304 26.9054657,2.43072067 L26.9054657,2.43072067 Z M29.0451255,2.43072067 L29.0451255,0.0314631743 L28.4700163,0.0314631743 L28.4700163,1.42349913 C28.2879598,1.18381145 28.0113286,1.03354242 27.6356776,1.03354242 C26.8945896,1.03354242 26.3142787,1.61842988 26.3142787,2.43072067 C26.3142787,3.24367805 26.8945896,3.82789891 27.6356776,3.82789891 C28.0113286,3.82789891 28.2879598,3.67762988 28.4700163,3.43860879 L28.4700163,3.76114442 L29.0451255,3.76114442 L29.0451255,2.43072067 Z M14.6215258,1.55110402 C14.9920698,1.55110402 15.2294525,1.78488759 15.2905478,2.19684186 L13.9196864,2.19684186 C13.9802142,1.81278926 14.2123953,1.55110402 14.6215258,1.55110402 L14.6215258,1.55110402 Z M14.6324965,1.03354242 C13.8585911,1.03354242 13.3169613,1.60157461 13.3169613,2.43072067 C13.3169613,3.27662677 13.8810999,3.82789891 14.671745,3.82789891 C15.0693374,3.82789891 15.4340177,3.7275291 15.7550045,3.45479747 L15.4732663,3.02665452 C15.2519613,3.20472999 14.970223,3.30452844 14.7045625,3.30452844 C14.3340185,3.30452844 13.996954,3.13226184 13.9139173,2.65355307 L15.8766277,2.65355307 C15.8823968,2.5809897 15.8875984,2.50842633 15.8875984,2.43072067 C15.8823968,1.60157461 15.3735845,1.03354242 14.6324965,1.03354242 L14.6324965,1.03354242 Z M21.5705969,2.43072067 C21.5705969,1.96305829 21.874844,1.57891046 22.3726856,1.57891046 C22.848113,1.57891046 23.1685324,1.94620302 23.1685324,2.43072067 C23.1685324,2.91523831 22.848113,3.28253088 22.3726856,3.28253088 C21.874844,3.28253088 21.5705969,2.89838304 21.5705969,2.43072067 L21.5705969,2.43072067 Z M23.7101622,2.43072067 L23.7101622,1.10020169 L23.1350529,1.10020169 L23.1350529,1.42349913 C22.9529965,1.18381145 22.6763652,1.03354242 22.3007142,1.03354242 C21.5596262,1.03354242 20.9793154,1.61842988 20.9793154,2.43072067 C20.9793154,3.24367805 21.5596262,3.82789891 22.3007142,3.82789891 C22.6763652,3.82789891 22.9529965,3.67762988 23.1350529,3.43860879 L23.1350529,3.76114442 L23.7101622,3.76114442 L23.7101622,2.43072067 Z M18.3257362,2.43072067 C18.3257362,3.23777394 18.8841057,3.82789891 19.7351842,3.82789891 C20.1334386,3.82789891 20.3990991,3.73914686 20.686039,3.51050557 L20.4099752,3.0428432 C20.1945339,3.19892111 19.9674598,3.28253088 19.7191065,3.28253088 C19.2597567,3.27662677 18.9226922,2.94304475 18.9226922,2.43072067 C18.9226922,1.91896795 19.2597567,1.58471933 19.7191065,1.57891046 C19.9674598,1.57891046 20.1945339,1.66252022 20.4099752,1.81859814 L20.686039,1.35093576 C20.3990991,1.12286584 20.1334386,1.03354242 19.7351842,1.03354242 C18.8841057,1.03354242 18.3257362,1.62357216 18.3257362,2.43072067 L18.3257362,2.43072067 Z M25.7334004,1.03354242 C25.402105,1.03354242 25.1865691,1.18962033 25.0373301,1.42349913 L25.0373301,1.10020169 L24.4679899,1.10020169 L24.4679899,3.76114442 L25.0424371,3.76114442 L25.0424371,2.26940524 C25.0424371,1.8295493 25.2309246,1.58471933 25.6066702,1.58471933 C25.7224298,1.58471933 25.8439584,1.60157461 25.9662435,1.65147383 L26.1425309,1.10610579 C26.0158007,1.05620657 25.849822,1.03354242 25.7334004,1.03354242 L25.7334004,1.03354242 Z M10.3313301,1.31208293 C10.0553609,1.12810335 9.67384619,1.03354242 9.25374501,1.03354242 C8.58472302,1.03354242 8.15374575,1.35674464 8.15374575,1.8852574 C8.15374575,2.31930446 8.47407053,2.58679858 9.06535205,2.67040835 L9.33678167,2.70926118 C9.65133739,2.75392289 9.80057639,2.83686606 9.80057639,2.98713509 C9.80057639,3.19311223 9.59090411,3.31033731 9.19841877,3.31033731 C8.80025894,3.31033731 8.51275161,3.18206584 8.31906246,3.0317968 L8.04829487,3.48260391 C8.36351261,3.71648271 8.76167243,3.82789891 9.19264971,3.82789891 C9.95567903,3.82789891 10.398289,3.46641523 10.398289,2.95990002 C10.398289,2.49223765 10.0495918,2.24740768 9.47448255,2.16379791 L9.20362038,2.12437372 C8.95526701,2.09123454 8.75590337,2.04143054 8.75590337,1.86325984 C8.75590337,1.6683291 8.94372889,1.55110402 9.25894663,1.55110402 C9.59667317,1.55110402 9.92219956,1.67928027 10.0829767,1.77974531 L10.3313301,1.31208293 Z M17.7454254,1.03354242 C17.4134679,1.03354242 17.197932,1.18962033 17.048693,1.42349913 L17.048693,1.10020169 L16.4794474,1.10020169 L16.4794474,3.76114442 L17.0538946,3.76114442 L17.0538946,2.26940524 C17.0538946,1.8295493 17.2423821,1.58471933 17.6180331,1.58471933 C17.7338872,1.58471933 17.8560779,1.60157461 17.977701,1.65147383 L18.1545559,1.10610579 C18.0271636,1.05620657 17.8611849,1.03354242 17.7454254,1.03354242 L17.7454254,1.03354242 Z M12.8415339,1.10020169 L11.9016497,1.10020169 L11.9016497,0.293148413 L11.3214334,0.293148413 L11.3214334,1.10020169 L10.7848161,1.10020169 L10.7848161,1.62947627 L11.3214334,1.62947627 L11.3214334,2.84267494 C11.3214334,3.46060635 11.5587216,3.82789891 12.2387142,3.82789891 C12.4877296,3.82789891 12.775237,3.75019325 12.9572934,3.62192178 L12.7919767,3.12635774 C12.6202289,3.22682277 12.4324034,3.27662677 12.2831644,3.27662677 C11.9955625,3.27662677 11.9016497,3.0985513 11.9016497,2.83162855 L11.9016497,1.62947627 L12.8415339,1.62947627 L12.8415339,1.10020169 Z M4.2501717,3.76114442 L4.2501717,2.09123454 C4.2501717,1.46235196 3.85257933,1.0393513 3.21126774,1.03354242 C2.87410865,1.02830491 2.52550601,1.13391223 2.28225968,1.50701367 C2.10020323,1.21161789 1.81269589,1.03354242 1.40867243,1.03354242 C1.12693416,1.03354242 0.850302933,1.11705696 0.634767009,1.42864142 L0.634767009,1.10020169 L0.0596577713,1.10020169 L0.0596577713,3.76114442 L0.64053607,3.76114442 L0.64053607,2.28626051 C0.64053607,1.82374042 0.894658504,1.57891046 1.28714384,1.57891046 C1.66856393,1.57891046 1.86225308,1.8295493 1.86225308,2.28045163 L1.86225308,3.76114442 L2.44246935,3.76114442 L2.44246935,2.28626051 C2.44246935,1.82374042 2.70812991,1.57891046 3.08964457,1.57891046 C3.48203534,1.57891046 3.66986085,1.8295493 3.66986085,2.28045163 L3.66986085,3.76114442 L4.2501717,3.76114442 Z" id="Fill-1" fill="#020303" mask="url(#mask-2)"></path>
                </g>
                <mask id="mask-4" fill="white">
                    <use xlink:href="#path-3"></use>
                </mask>
                <g id="Clip-5"></g>
                <polygon id="Fill-4" fill="#F16522" mask="url(#mask-4)" points="11.7480792 17.8998226 20.4565249 17.8998226 20.4565249 2.14280977 11.7480792 2.14280977"></polygon>
                <path d="M12.3013038,10.0212876 C12.3013038,6.82469008 13.7879248,3.97786322 16.1026425,2.14273358 C14.4093757,0.800596848 12.2735934,1.90455048e-05 9.9519717,1.90455048e-05 C4.45547463,1.90455048e-05 -3.78299119e-05,4.48694957 -3.78299119e-05,10.0212876 C-3.78299119e-05,15.5556257 4.45547463,20.0425562 9.9519717,20.0425562 C12.2735934,20.0425562 14.4093757,19.2419784 16.1026425,17.8998417 C13.7879248,16.0648073 12.3013038,13.2178852 12.3013038,10.0212876" id="Fill-6" fill="#E41B24" mask="url(#mask-4)"></path>
                <path d="M31.8944839,16.2305698 L31.8944839,15.8419463 L31.7934781,15.8419463 L31.677624,16.1094404 L31.5618644,15.8419463 L31.4608586,15.8419463 L31.4608586,16.2305698 L31.5316005,16.2305698 L31.5316005,15.9371738 L31.6403615,16.1903838 L31.714319,16.1903838 L31.82308,15.9365072 L31.82308,16.2305698 L31.8944839,16.2305698 Z M31.2556313,16.2305698 L31.2556313,15.9080342 L31.384915,15.9080342 L31.384915,15.8426129 L31.0556056,15.8426129 L31.0556056,15.9080342 L31.1848894,15.9080342 L31.1848894,16.2305698 L31.2556313,16.2305698 Z M32.2051621,10.0206877 C32.2051621,15.5555971 27.7496496,20.0418611 22.2532471,20.0418611 C19.9315309,20.0418611 17.7957486,19.2412833 16.1032383,17.8991465 C18.4178615,16.0647787 19.903915,13.2172853 19.903915,10.0206877 C19.903915,6.82399492 18.4178615,3.97716806 16.1032383,2.14213365 C17.7957486,0.800663507 19.9315309,-9.52275241e-06 22.2532471,-9.52275241e-06 C27.7496496,-9.52275241e-06 32.2051621,4.48625441 32.2051621,10.0206877 L32.2051621,10.0206877 Z" id="Fill-7" fill="#F89E1B" mask="url(#mask-4)"></path>
            </g>
        </g>
    </g>
</svg>