<?xml version="1.0" encoding="UTF-8"?>
<svg width="14px" height="14px" viewBox="0 0 14 14" version="1.1" xmlns="http://www.w3.org/2000/svg" xmlns:xlink="http://www.w3.org/1999/xlink">
    <!-- Generator: sketchtool 46.2 (44496) - http://www.bohemiancoding.com/sketch -->
    <title>E68C5082-8E7A-4E78-8156-5BFAD60CFA0C</title>
    <desc>Created with sketchtool.</desc>
    <defs></defs>
    <g id="Symbols" stroke="none" stroke-width="1" fill="none" fill-rule="evenodd">
        <g id="Icons/star/half/black" fill="#000000">
            <g id="ic_star_half">
                <path d="M14,5.068 L8.967,4.634 L7,0 L5.033,4.641 L0,5.068 L3.822,8.379 L2.674,13.3 L7,10.689 L11.326,13.3 L10.185,8.379 L14,5.068 L14,5.068 Z M7,9.38 L7,2.87 L8.197,5.698 L11.263,5.964 L8.939,7.98 L9.639,10.976 L7,9.38 L7,9.38 Z" id="Icon"></path>
            </g>
        </g>
    </g>
</svg>