<?xml version="1.0" encoding="UTF-8"?>
<svg width="9px" height="16px" viewBox="0 0 9 16" version="1.1" xmlns="http://www.w3.org/2000/svg" xmlns:xlink="http://www.w3.org/1999/xlink">
    <!-- Generator: sketchtool 46.2 (44496) - http://www.bohemiancoding.com/sketch -->
    <title>5BB05D6D-3D06-4826-A97F-F96EFA52E783</title>
    <desc>Created with sketchtool.</desc>
    <defs></defs>
    <g id="Symbols" stroke="none" stroke-width="1" fill="none" fill-rule="evenodd">
        <g id="Structure-elements/fixed-header" transform="translate(-812.000000, -32.000000)" fill="#303030">
            <g id="Group-13">
                <g id="Icons/phone/black" transform="translate(812.000000, 32.000000)">
                    <g id="ic-phone">
                        <path d="M8,2.5 L1,2.5 L1,2 C1,1.448 1.448,1 2,1 L7,1 C7.552,1 8,1.448 8,2 L8,2.5 L8,2.5 Z M1,3.5 L8,3.5 L8,10 L1,10 L1,3.5 Z M8,14 C8,14.552 7.552,15 7,15 L2,15 C1.448,15 1,14.552 1,14 L1,11 L8,11 L8,14 L8,14 Z M7,0 L2,0 C0.8955,0 0,0.8955 0,2 L0,14 C0,15.1045 0.8955,16 2,16 L7,16 C8.1045,16 9,15.1045 9,14 L9,2 C9,0.8955 8.1045,0 7,0 L7,0 Z M4.5,14 C5.052,14 5.5,13.552 5.5,13 C5.5,12.448 5.052,12 4.5,12 C3.948,12 3.5,12.448 3.5,13 C3.5,13.552 3.948,14 4.5,14 L4.5,14 Z" id="ic-phone-black"></path>
                    </g>
                </g>
            </g>
        </g>
    </g>
</svg>