<?xml version="1.0" encoding="UTF-8"?>
<svg width="17px" height="10px" viewBox="0 0 17 10" version="1.1" xmlns="http://www.w3.org/2000/svg" xmlns:xlink="http://www.w3.org/1999/xlink">
    <!-- Generator: sketchtool 46.2 (44496) - http://www.bohemiancoding.com/sketch -->
    <title>FF769D5A-D359-4119-9AEA-F743416E8987</title>
    <desc>Created with sketchtool.</desc>
    <defs></defs>
    <g id="laptop-1366x768" stroke="none" stroke-width="1" fill="none" fill-rule="evenodd">
        <g id="Product-page" transform="translate(-817.000000, -1103.000000)" fill="#000000">
            <g id="block1-feddback" transform="translate(797.000000, 889.000000)">
                <g id="feedback" transform="translate(1.000000, 28.000000)">
                    <g id="Icons/reply/black" transform="translate(19.000000, 186.000000)">
                        <g id="if_reply_226602">
                            <path d="M10.0454941,3.66500853 L2.63817251,3.66500853 L6.23674297,0.983147483 C6.53849126,0.758255286 6.53849126,0.393561345 6.23674297,0.168669148 C5.93499469,-0.0562230493 5.44566792,-0.0562230493 5.14391964,0.168669148 L0.226311214,3.83360569 C-0.0754370714,4.05849789 -0.0754370714,4.42319183 0.226311214,4.64808403 L5.14391964,8.31316454 C5.44566792,8.53805674 5.93499469,8.53805674 6.23674297,8.31316454 C6.53849126,8.08827235 6.53849126,7.72357841 6.23674297,7.49868621 L2.63836569,4.81682516 L10.0454941,4.81682516 C13.0328407,4.81682516 15.4545542,6.62172182 15.4545542,8.84818337 L15.4545542,9.42409168 C15.4545542,9.74213705 15.8005409,10 16.2272771,10 C16.6540133,10 17,9.74213705 17,9.42409168 L17,8.84818337 C17,5.98548711 13.8863131,3.66500853 10.0454941,3.66500853 Z" id="Shape" fill-rule="nonzero"></path>
                        </g>
                    </g>
                </g>
            </g>
        </g>
    </g>
</svg>