<?xml version="1.0" encoding="UTF-8"?>
<svg width="25px" height="24px" viewBox="0 0 25 24" version="1.1" xmlns="http://www.w3.org/2000/svg" xmlns:xlink="http://www.w3.org/1999/xlink">
    <!-- Generator: sketchtool 46.2 (44496) - http://www.bohemiancoding.com/sketch -->
    <title>1EFD14C8-C3BD-4CB5-BFCC-78434F400470</title>
    <desc>Created with sketchtool.</desc>
    <defs></defs>
    <g id="Symbols" stroke="none" stroke-width="1" fill="none" fill-rule="evenodd">
        <g id="Icons/favs/black" fill="#303030">
            <path d="M21.49,10.500935 L12.28,21.49 L3.07,10.4556525 C1.9686375,8.92525749 1.535,7.891435 1.535,6.476165 C1.535,3.8367325 3.4192125,1.46132 6.14,1.4390625 C8.37802999,1.4206425 10.915385,3.7062575 12.28,5.429295 C13.6085425,3.76689 16.18197,1.4390625 18.42,1.4390625 C21.0686425,1.4390625 23.025,3.8367325 23.025,6.476165 C23.025,7.891435 22.6819275,9.00200749 21.49,10.500935 L21.49,10.500935 Z M18.42,0 C15.8619225,0 13.9262875,1.50123 12.28,3.07 C10.7119975,1.4052925 8.69807749,0 6.14,0 C2.537355,0 0,3.09763 0,6.476165 C0,8.28823249 0.7421725,9.59298249 1.554955,10.8194475 L11.0972825,22.2598025 C12.167945,23.3934 12.370565,23.3934 13.4412275,22.2598025 L23.005045,10.8194475 C23.96135,9.59298249 24.56,8.28823249 24.56,6.476165 C24.56,3.09763 22.022645,0 18.42,0 L18.42,0 Z" id="ic-favs-black"></path>
        </g>
    </g>
</svg>