<?xml version="1.0" encoding="UTF-8"?>
<svg width="15px" height="14px" viewBox="0 0 15 14" version="1.1" xmlns="http://www.w3.org/2000/svg" xmlns:xlink="http://www.w3.org/1999/xlink">
    <!-- Generator: sketchtool 46.2 (44496) - http://www.bohemiancoding.com/sketch -->
    <title>1BCFDE0C-5BA0-4E05-9DBF-BBA5A31B4DA3</title>
    <desc>Created with sketchtool.</desc>
    <defs></defs>
    <g id="laptop-1366x768" stroke="none" stroke-width="1" fill="none" fill-rule="evenodd">
        <g id="Product-page" transform="translate(-775.000000, -386.000000)" fill="#303030">
            <g id="line2" transform="translate(754.000000, 270.000000)">
                <g id="Icons/star/filled/black" transform="translate(21.000000, 116.000000)">
                    <polygon id="ic-star-filled" points="12.135 14 10.90875 8.82073684 15 5.33768421 9.60675 4.88305263 7.5 0 5.39325 4.88305263 0 5.33768421 4.09125 8.82073684 2.865 14 7.5 11.2530526"></polygon>
                </g>
            </g>
        </g>
    </g>
</svg>