<?xml version="1.0" encoding="UTF-8"?>
<svg width="7px" height="14px" viewBox="0 0 7 14" version="1.1" xmlns="http://www.w3.org/2000/svg" xmlns:xlink="http://www.w3.org/1999/xlink">
    <!-- Generator: sketchtool 46.2 (44496) - http://www.bohemiancoding.com/sketch -->
    <title>BD8DD531-046D-40C4-B20D-451581AF7990</title>
    <desc>Created with sketchtool.</desc>
    <defs></defs>
    <g id="laptop-1366x768" stroke="none" stroke-width="1" fill="none" fill-rule="evenodd">
        <g id="Pesonal-info" transform="translate(-209.000000, -879.000000)" fill="#FFFFFF">
            <g id="block3" transform="translate(189.000000, 827.000000)">
                <g id="facebook" transform="translate(0.000000, 34.000000)">
                    <path d="M24.7748977,32 L24.7748977,25.7 L26.6875853,25.7 L27,22.9 L24.7748977,22.9 L24.7748977,21.5364 C24.7748977,20.8154 24.7933151,20.1 25.8008186,20.1 L26.8212824,20.1 L26.8212824,18.098 C26.8212824,18.0679 25.9447476,18 25.0579809,18 C23.2060027,18 22.0463847,19.1599 22.0463847,21.29 L22.0463847,22.9 L20,22.9 L20,25.7 L22.0463847,25.7 L22.0463847,32 L24.7748977,32 Z" id="ic-fb"></path>
                </g>
            </g>
        </g>
    </g>
</svg>