<?xml version="1.0" encoding="UTF-8"?>
<svg width="16px" height="10px" viewBox="0 0 16 10" version="1.1" xmlns="http://www.w3.org/2000/svg" xmlns:xlink="http://www.w3.org/1999/xlink">
    <!-- Generator: sketchtool 46.2 (44496) - http://www.bohemiancoding.com/sketch -->
    <title>8249DFFC-1D30-4D7C-8819-ECC1B3FC97FA</title>
    <desc>Created with sketchtool.</desc>
    <defs></defs>
    <g id="Symbols" stroke="none" stroke-width="1" fill="none" fill-rule="evenodd">
        <g id="Icons/arrow/white" fill="#FFFFFF">
            <g id="Icons/arrow/black">
                <path d="M10.656602,9.5894364 C10.8962419,9.82969077 11.2858104,9.82969077 11.5260648,9.5894364 L15.7652331,5.35026801 C15.8930411,5.2218456 15.9477282,5.05163983 15.9391257,4.88450636 C15.9477282,4.71737289 15.8930411,4.54716711 15.7652331,4.41935917 L11.5260648,0.180190771 C11.2858104,-0.0600635905 10.8962419,-0.0600635905 10.656602,0.180190771 C10.4169621,0.419216211 10.4169621,0.808784664 10.656602,1.04903903 L13.8782225,4.27004507 L0.614461283,4.27004507 C0.274664194,4.27004507 0,4.54532373 0,4.88450636 C0,5.22430345 0.274664194,5.49896764 0.614461283,5.49896764 L13.8782225,5.49896764 L10.656602,8.72058815 C10.4169621,8.96022805 10.4169621,9.3497965 10.656602,9.5894364 Z" id="ic-arrow-black"></path>
            </g>
        </g>
    </g>
</svg>