<?xml version="1.0" encoding="UTF-8"?>
<svg width="13px" height="13px" viewBox="0 0 13 13" version="1.1" xmlns="http://www.w3.org/2000/svg" xmlns:xlink="http://www.w3.org/1999/xlink">
    <!-- Generator: sketchtool 46.2 (44496) - http://www.bohemiancoding.com/sketch -->
    <title>6FBEF9DA-F92F-4988-9C35-4290E2214162</title>
    <desc>Created with sketchtool.</desc>
    <defs></defs>
    <g id="laptop-1366x768" stroke="none" stroke-width="1" fill="none" fill-rule="evenodd">
        <g id="Homepage" transform="translate(-1076.000000, -4267.000000)" fill="#FFFFFE">
            <g id="viewport-6" transform="translate(0.000000, 3980.000000)">
                <g id="block2" transform="translate(682.000000, 0.000000)">
                    <g id="primary-action-btn" transform="translate(347.000000, 268.000000)">
                        <g id="Icons/chat/white" transform="translate(47.000000, 19.000000)">
                            <path d="M9.75,4.875 C9.3015,4.875 8.9375,5.239 8.9375,5.6875 C8.9375,6.136 9.3015,6.5 9.75,6.5 C10.1985,6.5 10.5625,6.136 10.5625,5.6875 C10.5625,5.239 10.1985,4.875 9.75,4.875 L9.75,4.875 Z M6.5,10.5625 C6.0255,10.5625 5.56725,10.50725 5.126875,10.4134063 L3.21425,11.5630937 L3.23984375,9.6785 C1.7736875,8.7969375 0.8125,7.3393125 0.8125,5.6875 C0.8125,2.99528125 3.358875,0.8125 6.5,0.8125 C9.641125,0.8125 12.1875,2.99528125 12.1875,5.6875 C12.1875,8.380125 9.641125,10.5625 6.5,10.5625 L6.5,10.5625 Z M6.5,0 C2.910375,0 0,2.54678125 0,5.6875 C0,7.48271875 0.95265625,9.0813125 2.4375,10.1233437 L2.4375,13 L5.28490625,11.2722188 C5.67896875,11.3372187 6.08440625,11.375 6.5,11.375 C10.089625,11.375 13,8.828625 13,5.6875 C13,2.54678125 10.089625,0 6.5,0 L6.5,0 Z M3.25,4.875 C2.8015,4.875 2.4375,5.239 2.4375,5.6875 C2.4375,6.136 2.8015,6.5 3.25,6.5 C3.6985,6.5 4.0625,6.136 4.0625,5.6875 C4.0625,5.239 3.6985,4.875 3.25,4.875 L3.25,4.875 Z M6.5,4.875 C6.0515,4.875 5.6875,5.239 5.6875,5.6875 C5.6875,6.136 6.0515,6.5 6.5,6.5 C6.9485,6.5 7.3125,6.136 7.3125,5.6875 C7.3125,5.239 6.9485,4.875 6.5,4.875 L6.5,4.875 Z" id="ic-chat-white"></path>
                        </g>
                    </g>
                </g>
            </g>
        </g>
    </g>
</svg>