<?xml version="1.0" encoding="UTF-8"?>
<svg width="16px" height="16px" viewBox="0 0 16 16" version="1.1" xmlns="http://www.w3.org/2000/svg" xmlns:xlink="http://www.w3.org/1999/xlink">
    <!-- Generator: sketchtool 46.2 (44496) - http://www.bohemiancoding.com/sketch -->
    <title>39728FCC-AF1B-4565-81FC-81EBA335DBB5</title>
    <desc>Created with sketchtool.</desc>
    <defs></defs>
    <g id="laptop-1366x768" stroke="none" stroke-width="1" fill="none" fill-rule="evenodd">
        <g id="Checkout-step1" transform="translate(-358.000000, -327.000000)">
            <g id="block1" transform="translate(118.000000, 251.000000)">
                <g id="Icons/hint" transform="translate(240.000000, 76.000000)">
                    <g id="ic-hint">
                        <circle id="Oval-10" fill="#171717" cx="8" cy="8" r="8"></circle>
                        <path d="M7.64741619,10.2310768 C7.64741619,9.73594924 7.70255457,9.32297404 7.81283298,8.9921388 C7.92311139,8.66130357 8.16391982,8.27871074 8.53526549,7.84434884 C8.90661116,7.40998693 9.14854486,7.09603576 9.26107385,6.90248589 C9.37360284,6.70893603 9.46024886,6.50413634 9.52101452,6.28808067 C9.58178017,6.07202501 9.61216255,5.81996385 9.61216255,5.53188964 C9.61216255,4.96924468 9.48838251,4.52926293 9.24081873,4.21193117 C8.99325495,3.89459942 8.65567304,3.73593592 8.22806288,3.73593592 C7.79595155,3.73593592 7.44261582,3.89009833 7.16804509,4.19842776 C6.89347435,4.5067572 6.75168995,4.9197324 6.74268763,5.43736576 L6,5.43736576 C6.00900232,4.69917558 6.22167892,4.10840723 6.63803619,3.66504301 C7.05439345,3.22167879 7.58439705,3 8.22806288,3 C8.89423451,3 9.41636119,3.22843042 9.7944586,3.68529813 C10.172556,4.14216583 10.3616019,4.75543963 10.3616019,5.52513793 C10.3616019,6.00226085 10.2682042,6.44899424 10.0814061,6.86535151 C9.89460797,7.28170878 9.53789642,7.78470582 9.01126074,8.37435773 C8.59715405,8.8019679 8.39010382,9.42086806 8.39010382,10.2310768 L7.64741619,10.2310768 Z M7.56639572,12.4861465 C7.56639572,12.3286059 7.6091561,12.196949 7.69467813,12.0911717 C7.78020016,11.9853945 7.90172965,11.9325066 8.05927024,11.9325066 C8.21681082,11.9325066 8.33946558,11.9853945 8.4272382,12.0911717 C8.51501081,12.196949 8.55889646,12.3286059 8.55889646,12.4861465 C8.55889646,12.6391859 8.51501081,12.7663418 8.4272382,12.8676179 C8.33946558,12.968894 8.21681082,13.0195312 8.05927024,13.0195312 C7.90172965,13.0195312 7.78020016,12.968894 7.69467813,12.8676179 C7.6091561,12.7663418 7.56639572,12.6391859 7.56639572,12.4861465 Z" id="?" fill="#FFFFFF"></path>
                    </g>
                </g>
            </g>
        </g>
    </g>
</svg>